^C:\USERS\SNORFLAKE\DOCUMENTS\VISUAL STUDIO 2013\PROJECTS\MEATBEATER\MEATBEATER\MAIN.CPP
C:\USERS\SNORFLAKE\DOCUMENTS\VISUAL STUDIO 2013\PROJECTS\MEATBEATER\MEATBEATER\DEBUG\VC120.PDB
C:\USERS\SNORFLAKE\DOCUMENTS\VISUAL STUDIO 2013\PROJECTS\MEATBEATER\MEATBEATER\DEBUG\VC120.IDB
C:\USERS\SNORFLAKE\DOCUMENTS\VISUAL STUDIO 2013\PROJECTS\MEATBEATER\MEATBEATER\DEBUG\MAIN.OBJ
^C:\USERS\PATRICK\DOCUMENTS\WEEBCHEAT\MAIN.CPP
C:\USERS\PATRICK\DOCUMENTS\WEEBCHEAT\DEBUG\VC120.PDB
C:\USERS\PATRICK\DOCUMENTS\WEEBCHEAT\DEBUG\VC120.IDB
C:\USERS\PATRICK\DOCUMENTS\WEEBCHEAT\DEBUG\MAIN.OBJ
