^C:\USERS\SNORFLAKE\DOCUMENTS\VISUAL STUDIO 2013\PROJECTS\MEATBEATER\MEATBEATER\DEBUG\MAIN.OBJ
C:\USERS\SNORFLAKE\DOCUMENTS\VISUAL STUDIO 2013\PROJECTS\MEATBEATER\DEBUG\MEATBEATER.ILK
C:\USERS\SNORFLAKE\DOCUMENTS\VISUAL STUDIO 2013\PROJECTS\MEATBEATER\DEBUG\MEATBEATER.DLL
C:\USERS\SNORFLAKE\DOCUMENTS\VISUAL STUDIO 2013\PROJECTS\MEATBEATER\DEBUG\MEATBEATER.PDB
